Scraping examples - Baseball Reference batting
…
That just shows we are getting the HTML of the page.

Plucking out tables

We could get all the tables with html_table()

all_tables <- br_batting_raw |> html_table()

all_tables

[[1]]
# A tibble: 33 × 29
   Tm        `#Bat` BatAge `R/G` G     PA    AB    R     H     `2B`  `3B`  HR   
   <chr>     <chr>  <chr>  <chr> <chr> <chr> <chr> <chr> <chr> <chr> <chr> <chr>
 1 Arizona … 54     27.4   4.60  162   6124  5436  746   1359  274   44    166  
 2 Atlanta … 53     27.9   5.85  162   6249  5597  947   1543  293   23    307  
 3 Baltimor… 50     27.2   4.98  162   6123  5495  807   1399  309   28    183  
 4 Boston R… 56     28.6   4.77  162   6174  5562  772   1437  339   19    182  
 5 Chicago … 48     28.4   5.06  162   6220  5504  819   1399  269   30    196  
 6 Chicago … 56     27.8   3.96  162   5980  5501  641   1308  264   13    171  
 7 Cincinna… 65     26.8   4.83  162   6195  5499  783   1371  268   37    198  
 8 Clevelan… 50     26.6   4.09  162   6096  5513  662   1379  294   29    124  
 9 Colorado… 57     28.1   4.45  162   6055  5496  721   1368  305   31    163  
10 Detroit … 51     27.4   4.08  162   6080  5478  661   1292  245   29    165  
# ℹ 23 more rows
# ℹ 17 more variables: RBI <chr>, SB <chr>, CS <chr>, BB <chr>, SO <chr>,
#   BA <chr>, OBP <chr>, SLG <chr>, OPS <chr>, `OPS+` <chr>, TB <chr>,
#   GDP <chr>, HBP <chr>, SH <chr>, SF <chr>, IBB <chr>, LOB <chr>

[[2]]
# A tibble: 881 × 34
      Rk Player        Age Team  Lg      WAR     G    PA    AB     R     H  `2B`
   <int> <chr>       <int> <chr> <chr> <dbl> <int> <int> <int> <int> <int> <int>
 1     1 Matt Olson*    29 ATL   NL      7.4   162   720   608   127   172    27
 2     2 Kyle Schwa…    30 PHI   NL      0.6   160   720   585   108   115    19
 3     3 Pete Alonso    28 NYM   NL      3.2   154   658   568    92   123    21
 4     4 Shohei Oht…    28 LAA   AL      6     135   599   497   102   151    26
 5     5 Ronald Acu…    25 ATL   NL      8.2   159   735   643   149   217    35
 6     6 Marcell Oz…    32 ATL   NL      3.3   144   592   530    84   145    29
 7     7 Mookie Bet…    30 LAD   NL      8.3   152   693   584   126   179    40
 8     8 Adolis Gar…    30 TEX   AL      4.2   148   632   555   108   136    29
 9     9 Luis Rober…    25 CHW   AL      5     145   595   546    90   144    36
10    10 Aaron Judge    31 NYY   AL      4.5   106   458   367    79    98    16
# ℹ 871 more rows
# ℹ 22 more variables: `3B` <int>, HR <int>, RBI <int>, SB <int>, CS <int>,
#   BB <int>, SO <int>, BA <dbl>, OBP <dbl>, SLG <dbl>, OPS <dbl>,
#   `OPS+` <int>, rOBA <dbl>, `Rbat+` <int>, TB <int>, GIDP <int>, HBP <int>,
#   SH <int>, SF <int>, IBB <int>, Pos <chr>, Awards <chr>

[[3]]
# A tibble: 293 × 30
      Rk Player        Age Team  Lg        G    PA    AB     R     H  `2B`  `3B`
   <int> <chr>       <int> <chr> <chr> <int> <int> <int> <int> <int> <int> <int>
 1     1 Adolis Gar…    30 TEX   AL,WS    15    68    62    11    20     1     0
 2     2 Yordan Alv…    26 HOU   AL       11    49    43    12    20     2     1
 3     3 Corey Seag…    29 TEX   AL,WS    17    82    66    18    20     6     0
 4     4 Nick Caste…    31 PHI   NL       13    52    47     7    10     2     0
 5     5 Bryce Harp…    30 PHI   NL       13    55    42    14    12     0     0
 6     6 Kyle Schwa…    30 PHI   NL       13    57    47     9    12     4     0
 7     7 José Abreu     36 HOU   AL       11    48    44     6    13     1     0
 8     8 Jose Altuve    33 HOU   AL       11    51    49    11    14     3     0
 9     9 Alex Bregm…    29 HOU   AL       11    49    41    10     9     1     1
10    10 Royce Lewis    24 MIN   AL        6    26    22     6     5     0     0
# ℹ 283 more rows
# ℹ 18 more variables: HR <int>, RBI <int>, SB <int>, CS <int>, BB <int>,
#   SO <int>, BA <dbl>, OBP <dbl>, SLG <dbl>, OPS <dbl>, TB <int>, GIDP <int>,
#   HBP <int>, SH <int>, SF <int>, IBB <int>, Pos <chr>, Awards <chr>
…
