Longhorn Soccer Stats – Scraping examples
…
Individual stats

There are four separate tables we need that are displayed on the “Individual” tab.

Get the tables

game_stats_tables <- game_stats_raw |>
  html_elements("section#individual-stats")|>
  minimal_html() |> html_table()

game_stats_tables

[[1]]
# A tibble: 23 × 8
   Pos      `#`      Player                        SH    SOG   G     A     MIN  
   <chr>    <chr>    <chr>                         <chr> <chr> <chr> <chr> <chr>
 1 Starters Starters "Starters"                    Star… Star… Star… Star… Star…
 2 D        5        "5 \r\n                     … 0     0     0     0     90   
 3 F        6        "6 \r\n                     … 5     1     0     1     61   
 4 M        10       "10 \r\n                    … 4     1     1     0     61   
 5 M        11       "11 \r\n                    … 0     0     0     0     66   
 6 F        12       "12 \r\n                    … 4     2     0     0     62   
 7 M        15       "15 \r\n                    … 0     0     0     0     66   
 8 D        16       "16 \r\n                    … 1     0     0     0     90   
 9 M        21       "21 \r\n                    … 1     1     1     0     66   
10 GK       23       "23 \r\n                    … 0     0     0     0     45   
# ℹ 13 more rows

[[2]]
# A tibble: 4 × 6
  Position      `#`           Goalie           Minutes       GA          Saves  
  <chr>         <chr>         <chr>            <chr>         <chr>       <chr>  
1 "Goalkeeping" "Goalkeeping" Goalkeeping      "Goalkeeping" Goalkeeping Goalke…
2 "GK"          "1"           Bryane Heaberlin "45:00"       0           2      
3 "GK"          "23"          Lindsey Harris   "45:00"       0           0      
4 ""            ""            Totals           ""            0           2      

[[3]]
# A tibble: 23 × 8
   Pos      `#`      Player                        SH    SOG   G     A     MIN  
   <chr>    <chr>    <chr>                         <chr> <chr> <chr> <chr> <chr>
 1 Starters Starters "Starters"                    Star… Star… Star… Star… Star…
 2 GK       1        "1 \r\n                     … 1     1     0     0     90   
 3 M        4        "4 \r\n                     … 1     1     0     0     90   
 4 M        5        "5 \r\n                     … 0     0     0     0     85   
 5 D        12       "12 \r\n                    … 0     0     0     0     90   
 6 D        13       "13 \r\n                    … 0     0     0     0     90   
 7 D        14       "14 \r\n                    … 0     0     0     0     90   
 8 F        17       "17 \r\n                    … 2     0     0     0     66   
 9 F        20       "20 \r\n                    … 1     0     0     0     89   
10 F        23       "23 \r\n                    … 1     0     0     0     68   
# ℹ 13 more rows
…
